<svg width="17" height="17" viewBox="0 0 17 17" fill="none" xmlns="http://www.w3.org/2000/svg">
<circle cx="8.5" cy="8.29785" r="8" fill="#47AEB8"/>
<path d="M4.75 8.29785L7.25 10.7979L12.25 5.79785" stroke="white"/>
</svg>
