<svg width="369" height="369" viewBox="0 0 369 369" fill="none" xmlns="http://www.w3.org/2000/svg">
<circle cx="184.329" cy="184.106" r="184" fill="white"/>
<mask id="mask0_686_1860" style="mask-type:alpha" maskUnits="userSpaceOnUse" x="0" y="0" width="368" height="369">
<path d="M368 184.49C368 342.576 222.165 368.49 184 368.49C82.3796 368.49 0 286.11 0 184.49C0 82.8694 35.4261 0.489746 184 0.489746C332.574 0.489746 368 26.4037 368 184.49Z" fill="white"/>
</mask>
<g mask="url(#mask0_686_1860)">
<path d="M172.365 350.053L341.685 127.028C345.652 121.787 344.625 114.313 339.371 110.335L212.328 14.2115C207.086 10.2447 199.613 11.2718 195.635 16.5254L26.3148 239.562C22.3481 244.804 23.3752 252.277 28.6288 256.255L155.672 352.379C160.914 356.346 168.387 355.318 172.365 350.065V350.053Z" fill="#ADC2EB"/>
<g opacity="0.5">
<path d="M225.586 82.5319L236.329 68.4121L253.094 81.0916L242.35 95.2114L225.586 82.5319Z" fill="white"/>
<path d="M210.345 102.578L224.63 83.7952L241.382 96.4747L227.097 115.258L210.345 102.578Z" fill="white"/>
<path d="M228.372 116.214L242.657 97.4429L254.074 106.073L239.836 124.892L228.372 116.214Z" fill="white"/>
<path d="M255.03 104.81L243.614 96.1678L248.926 89.1906L260.319 97.8206L255.03 104.81Z" fill="white"/>
<path d="M190.676 128.433L198.621 117.985L215.386 130.665L207.429 141.113L190.676 128.433Z" fill="white"/>
<path d="M226.141 116.521L216.342 129.401L199.589 116.722L209.376 103.842L226.141 116.521Z" fill="white"/>
<path d="M227.404 117.477L238.867 126.155L222.032 148.397C221.029 149.719 219.14 149.979 217.817 148.975L208.68 142.069L227.392 117.477H227.404Z" fill="white"/>
<path d="M180.499 116.97L197.335 94.7274L208.113 102.885L189.401 127.477L181.078 121.184C179.756 120.181 179.496 118.292 180.499 116.97Z" fill="white"/>
<path d="M261.275 96.5456L249.882 87.9273L254.357 82.048L263.341 88.8482C264.663 89.8517 264.923 91.7406 263.92 93.0629L261.275 96.5574V96.5456Z" fill="white"/>
<path d="M216.637 91.6697L205.823 83.4882L212.529 74.6456L223.355 82.8389L216.637 91.6697Z" fill="white"/>
<path d="M204.867 84.7634L215.669 92.9449L209.069 101.61L198.291 93.4526L204.867 84.7634Z" fill="white"/>
<path d="M224.323 81.5757L213.485 73.3825L222.375 61.6356C223.378 60.3134 225.267 60.0536 226.589 61.0571L235.066 67.4677L224.323 81.5875V81.5757Z" fill="white"/>
</g>
<path d="M326.822 100.831L143.111 342.863" stroke="#4A5764" stroke-width="9.44" stroke-miterlimit="10"/>
<path opacity="0.5" d="M190.676 226.091L133.181 301.318" stroke="white" stroke-width="7.42" stroke-miterlimit="10" stroke-linecap="round"/>
<path opacity="0.5" d="M238.879 162.375L199.448 214.486" stroke="white" stroke-width="7.42" stroke-miterlimit="10" stroke-linecap="round"/>
<path opacity="0.5" d="M284.144 102.555L246.99 151.655" stroke="white" stroke-width="7.42" stroke-miterlimit="10" stroke-linecap="round"/>
<path d="M67.8006 137.429H86.1115C86.1115 119.484 100.715 104.881 118.66 104.881C136.605 104.881 151.209 119.484 151.209 137.429H169.52C169.52 109.39 146.711 86.5697 118.66 86.5697C90.6096 86.5697 67.8006 109.379 67.8006 137.429Z" fill="#8693A2"/>
<path d="M74.6127 133.604H162.708C173.812 133.604 182.813 142.606 182.813 153.71V220.118C182.813 231.222 173.812 240.223 162.708 240.223H74.6127C63.5088 240.223 54.5073 231.222 54.5073 220.118V153.71C54.5073 142.606 63.5088 133.604 74.6127 133.604Z" fill="#CA9400"/>
<path d="M73.3965 176.802H164.479C166.65 176.802 168.41 178.562 168.41 180.733V219.822C168.41 221.994 166.65 223.754 164.479 223.754H73.3965C71.2253 223.754 69.4652 221.994 69.4652 219.822V180.733C69.4652 178.562 71.2253 176.802 73.3965 176.802Z" fill="#1E3D7B"/>
<path d="M82.6056 186.872H154.81C155.417 186.872 155.908 187.364 155.908 187.97V196.612C155.908 197.219 155.417 197.71 154.81 197.71H82.6056C81.9992 197.71 81.5076 197.219 81.5076 196.612V187.97C81.5076 187.364 81.9992 186.872 82.6056 186.872Z" fill="white"/>
<path d="M82.6056 202.055H154.81C155.417 202.055 155.908 202.546 155.908 203.153V211.795C155.908 212.401 155.417 212.892 154.81 212.892H82.6056C81.9992 212.892 81.5076 212.401 81.5076 211.795V203.153C81.5076 202.546 81.9992 202.055 82.6056 202.055Z" fill="white"/>
<path d="M148.659 207.639C148.659 206.222 147.703 205.23 146.369 205.23C145.035 205.23 144.114 206.222 144.114 207.639C144.114 209.056 144.988 210.047 146.404 210.047C147.738 210.047 148.659 209.02 148.659 207.639Z" fill="black"/>
<path d="M140.749 207.639C140.749 206.222 139.793 205.23 138.459 205.23C137.125 205.23 136.204 206.222 136.204 207.639C136.204 209.056 137.077 210.047 138.494 210.047C139.828 210.047 140.749 209.02 140.749 207.639Z" fill="black"/>
<path d="M132.839 207.639C132.839 206.222 131.883 205.23 130.549 205.23C129.215 205.23 128.294 206.222 128.294 207.639C128.294 209.056 129.18 210.047 130.584 210.047C131.918 210.047 132.839 209.02 132.839 207.639Z" fill="black"/>
<path d="M124.929 207.639C124.929 206.222 123.973 205.23 122.639 205.23C121.305 205.23 120.384 206.222 120.384 207.639C120.384 209.056 121.269 210.047 122.674 210.047C124.008 210.047 124.929 209.02 124.929 207.639Z" fill="black"/>
<path d="M117.02 207.639C117.02 206.222 116.063 205.23 114.729 205.23C113.395 205.23 112.474 206.222 112.474 207.639C112.474 209.056 113.36 210.047 114.765 210.047C116.099 210.047 117.02 209.02 117.02 207.639Z" fill="black"/>
<path d="M109.109 207.639C109.109 206.222 108.153 205.23 106.819 205.23C105.485 205.23 104.564 206.222 104.564 207.639C104.564 209.056 105.45 210.047 106.854 210.047C108.189 210.047 109.109 209.02 109.109 207.639Z" fill="black"/>
<path d="M101.199 207.639C101.199 206.222 100.243 205.23 98.9089 205.23C97.5748 205.23 96.654 206.222 96.654 207.639C96.654 209.056 97.5394 210.047 98.9443 210.047C100.278 210.047 101.199 209.02 101.199 207.639Z" fill="black"/>
<path d="M93.2896 207.639C93.2896 206.222 92.3333 205.23 90.9992 205.23C89.6651 205.23 88.7443 206.222 88.7443 207.639C88.7443 209.056 89.6179 210.047 91.0346 210.047C92.3687 210.047 93.2896 209.02 93.2896 207.639Z" fill="black"/>
<path d="M149.368 192.291H87.7764" stroke="black" stroke-width="0.67" stroke-miterlimit="10"/>
<path d="M76.2063 143.911H161.114C167.778 143.911 173.18 149.313 173.18 155.976V218.713C173.18 225.376 167.778 230.778 161.114 230.778H76.2063C69.5426 230.778 64.1407 225.376 64.1407 218.713V155.976C64.1407 149.313 69.5426 143.911 76.2063 143.911Z" stroke="#EFB920" stroke-width="2.02" stroke-miterlimit="10"/>
<path d="M264.924 253.953C265.124 270.139 250.662 298.414 237.829 327.032C236.129 331.388 234.878 335.898 234.099 340.514L224.064 397.678L206.001 399.071L209.448 330.975C209.554 328.909 209.814 326.866 210.239 324.836L227.546 241.144L264.936 253.953H264.924Z" fill="#1E3D7B"/>
<path d="M266.446 241.451C273.908 255.819 273.707 287.576 275.112 318.909C275.549 323.561 276.458 328.165 277.851 332.628L295.831 390.642L278.252 395.919L251.535 335.201C250.709 333.312 250.012 331.364 249.481 329.369L227.298 246.834L266.458 241.463L266.446 241.451Z" fill="url(#paint0_linear_686_1860)"/>
<path d="M151.54 194.18C152.354 194.157 153.145 194.393 153.925 194.593C156.604 195.278 159.225 196.164 161.834 197.084C163.346 197.616 164.892 198.052 166.427 198.513C167.218 198.749 167.655 198.324 167.183 197.58C166.061 195.798 164.007 194.062 164.621 191.736C165.128 189.824 166.663 192.126 167.194 192.763C168.292 194.062 169.414 195.325 170.618 196.518C172.165 198.041 173.924 199.516 174.656 201.559C174.892 202.232 175.033 202.94 175.364 203.566C191.656 211.582 205.398 216.623 213.249 219.114C214.607 219.551 217.334 220.767 218.137 218.335C220.167 212.161 219.081 205.03 223.343 199.823L237.994 224.746C230.108 232.502 223.272 238.913 221.206 239.208C217.688 239.267 218.585 240.613 173.015 210.933C172.495 210.744 171.976 210.59 171.444 210.472C169.024 209.929 166.486 209.894 164.125 209.091C162.012 208.371 160.193 206.954 158.966 205.089C158.364 204.168 157.903 203.153 157.632 202.09C157.502 201.571 157.419 201.063 157.419 200.532C157.419 200.048 157.549 199.422 157.277 198.985C157.053 198.619 156.581 198.454 156.215 198.312C154.255 197.509 152.189 196.99 150.288 196.057C149.958 195.892 149.58 195.75 149.604 195.302C149.627 194.475 150.926 194.239 151.552 194.216L151.54 194.18Z" fill="url(#paint1_linear_686_1860)"/>
<path d="M252.764 173.402L233.532 219.681C226.153 214.604 219.518 213.093 213.438 212.172L223.367 183.283C227.924 173.626 241.288 167.711 250.709 172.375L252.764 173.39V173.402Z" fill="url(#paint2_linear_686_1860)"/>
<path d="M244.287 170.887L248.572 171.655C260.52 171.655 270.201 181.595 270.201 193.85V246.693L222.599 252.1V193.838C222.599 181.583 232.339 170.887 244.287 170.887Z" fill="#008891"/>
<path d="M265.089 261.426C264.805 244.91 263.943 227.319 262.68 220L262.704 219.976C261.559 210.897 255.703 194.794 253.271 189.529L271.228 191.784C274.333 200.98 275.938 205.833 276.233 210.626C276.564 215.868 275.726 228.311 272.255 263.256C272.751 265.429 272.078 267.506 271.228 269.572C270.744 270.753 269.929 272.111 270.165 273.433C270.271 274.035 270.602 274.555 270.909 275.086C272.066 277.046 274.049 280.717 271.393 282.37C269.492 283.551 267.839 282.158 266.104 281.248C264.605 280.469 262.834 279.643 261.866 278.203C261.83 278.155 259.87 275.369 259.776 273.043C259.682 270.505 261.016 267.908 262.621 265.96C263.601 264.768 265.124 263.115 265.1 261.438L265.089 261.426Z" fill="url(#paint3_linear_686_1860)"/>
<path d="M252.905 200.461L258.076 210.413C265.36 202.385 272.149 200.803 278.689 202.657L272.337 189.269C270.791 186.01 268.855 182.953 266.494 180.237C260.602 173.461 257.592 174.771 254.581 178.809C250.378 184.452 249.658 194.215 252.905 200.461Z" fill="url(#paint4_linear_686_1860)"/>
<path d="M246.943 155.646C246.943 161.832 237.333 166.85 233.272 166.85C229.21 166.85 228.242 161.832 228.242 155.646C228.242 149.459 229.494 142.258 235.597 142.931C242.48 143.686 246.943 149.459 246.943 155.646Z" fill="#FA8478"/>
<path d="M236.259 181.017H241.855C245.314 181.017 248.112 177.782 248.112 173.803V156.921L236.259 145.233V181.017Z" fill="#FA8478"/>
<path d="M251.453 174.039C251.512 170.557 243.566 169.057 238.419 171.584C233.024 174.24 231.111 175.763 231.643 179.576C232.138 183.106 238.277 184.192 243.791 182.528C249.269 180.875 251.382 177.617 251.453 174.039Z" fill="url(#paint5_linear_686_1860)"/>
<path d="M231.264 137.654C231.264 137.654 246.376 131.644 253.743 142.919C254.475 144.029 254.853 145.339 254.829 146.673C254.782 149.152 254.723 153.532 254.864 155.351C255.042 157.688 255.561 157.393 256.246 158.231C257.84 160.167 255.927 161.065 255.809 160.333C255.608 159.058 254.144 158.385 253.471 158.644C251.559 159.388 250.85 161.773 254.593 161.867C255.549 161.891 244.227 167.676 245.325 163.142C246.541 158.078 239.387 144.418 235.845 146.13C235.845 146.13 224.441 151.915 223.378 139.968C224.098 139.46 225.232 142.624 226.566 142.329C227.9 142.034 224.027 134.076 231.335 133.651C230.686 134.867 230.403 136.308 231.264 137.665V137.654Z" fill="#56201A"/>
<path d="M242.528 153.698C242.528 155.976 243.779 157.83 245.314 157.83C246.849 157.83 248.1 155.976 248.1 153.698C248.1 151.419 246.849 149.566 245.314 149.566C243.767 149.566 242.528 151.419 242.528 153.698Z" fill="#FA8478"/>
<path d="M232.528 152.824C232.072 152.824 231.702 152.454 231.702 151.998C231.702 151.541 232.072 151.171 232.528 151.171C232.984 151.171 233.354 151.541 233.354 151.998C233.354 152.454 232.984 152.824 232.528 152.824Z" fill="#2D353D"/>
<path d="M228.703 153.426L227.439 155.351C227.274 155.646 227.286 156.012 227.487 156.224L228.585 156.531" fill="#FA8478"/>
<path d="M228.703 153.426L227.439 155.351C227.274 155.646 227.286 156.012 227.487 156.224L228.585 156.531" stroke="#2D353D" stroke-width="0.35" stroke-miterlimit="10" stroke-linecap="round"/>
<path d="M232.28 160.522C231.477 161.1 230.014 161.572 228.526 161.466" stroke="#2D353D" stroke-width="0.35" stroke-miterlimit="10" stroke-linecap="round"/>
<path opacity="0.8" d="M234.393 157.83C234.048 157.83 233.768 157.55 233.768 157.204C233.768 156.859 234.048 156.578 234.393 156.578C234.739 156.578 235.019 156.859 235.019 157.204C235.019 157.55 234.739 157.83 234.393 157.83Z" fill="#DD2E1F"/>
<path d="M80.5039 119.685C79.406 122.341 78.6268 125.151 78.2136 128.055" stroke="#D7DBE0" stroke-width="3.83" stroke-miterlimit="10" stroke-linecap="round"/>
<path d="M88.6382 107.655C86.9736 109.308 85.4624 111.102 84.1402 113.015" stroke="#D7DBE0" stroke-width="3.83" stroke-miterlimit="10" stroke-linecap="round"/>
<path d="M118.554 95.6248C111.577 95.6248 105.001 97.2422 99.2634 100.087" stroke="#D7DBE0" stroke-width="2.87" stroke-miterlimit="10" stroke-linecap="round"/>
<path d="M158.93 128.374C157.962 120.96 154.597 114.207 149.568 108.776" stroke="#D7DBE0" stroke-width="1.91" stroke-miterlimit="10" stroke-linecap="round"/>
</g>
<defs>
<linearGradient id="paint0_linear_686_1860" x1="295.831" y1="318.685" x2="227.286" y2="318.685" gradientUnits="userSpaceOnUse">
<stop stop-color="#1E3D7B"/>
<stop offset="0.46" stop-color="#234790"/>
<stop offset="0.95" stop-color="#2851A4"/>
</linearGradient>
<linearGradient id="paint1_linear_686_1860" x1="166.049" y1="198.182" x2="248.49" y2="230.058" gradientUnits="userSpaceOnUse">
<stop offset="0.21" stop-color="#FA8478"/>
<stop offset="0.86" stop-color="#C9645D"/>
</linearGradient>
<linearGradient id="paint2_linear_686_1860" x1="240.852" y1="195.526" x2="212.529" y2="188.891" gradientUnits="userSpaceOnUse">
<stop offset="0.49" stop-color="#009EA5"/>
<stop offset="0.63" stop-color="#00949C"/>
<stop offset="0.87" stop-color="#008891"/>
</linearGradient>
<linearGradient id="paint3_linear_686_1860" x1="266.93" y1="236.965" x2="256.104" y2="197.911" gradientUnits="userSpaceOnUse">
<stop stop-color="#FA8478"/>
<stop offset="0.97" stop-color="#C9645D"/>
</linearGradient>
<linearGradient id="paint4_linear_686_1860" x1="269.964" y1="200.036" x2="241.465" y2="180.733" gradientUnits="userSpaceOnUse">
<stop offset="0.13" stop-color="#009EA5"/>
<stop offset="0.44" stop-color="#00949C"/>
<stop offset="1" stop-color="#008891"/>
</linearGradient>
<linearGradient id="paint5_linear_686_1860" x1="241.371" y1="174.83" x2="243.094" y2="194.652" gradientUnits="userSpaceOnUse">
<stop stop-color="#FA8478"/>
<stop offset="0.97" stop-color="#C9645D"/>
</linearGradient>
</defs>
</svg>
