<svg width="369" height="369" viewBox="0 0 369 369" fill="none" xmlns="http://www.w3.org/2000/svg">
<circle cx="184.329" cy="184.106" r="184" fill="white"/>
<mask id="mask0_686_1434" style="mask-type:alpha" maskUnits="userSpaceOnUse" x="0" y="0" width="368" height="369">
<path d="M368 184.49C368 342.576 222.165 368.49 184 368.49C82.3796 368.49 0 286.11 0 184.49C0 82.8694 35.4261 0.489746 184 0.489746C332.574 0.489746 368 26.4037 368 184.49Z" fill="white"/>
</mask>
<g mask="url(#mask0_686_1434)">
<path d="M34.0545 346.937L33.983 346.907C29.2478 344.749 25.8524 343.327 30.7205 331.832L20.3706 328.354L13.8354 347.786L18.4274 349.33L20.5854 347.582L21.2501 350.271L37.6238 355.774L37.6545 355.692C38.8 352.286 37.3068 348.461 34.0545 346.937Z" fill="#2D353D"/>
<path d="M77.8891 350.179H77.8072C72.6323 349.637 68.9505 349.371 69.9119 336.914H58.9893V357.41H63.8369L65.3199 355.068L66.8028 357.41H84.0765V357.328C84.0765 353.738 81.4481 350.578 77.8788 350.179H77.8891Z" fill="#2D353D"/>
<path d="M317.91 339.164C317.91 339.164 318.472 349.023 318.472 349.044C318.677 350.292 319.485 353.39 319.485 354.526C319.485 358.801 300.473 350.895 304.727 349.003C305.116 348.829 307.13 347.53 307.263 346.078C307.458 343.838 306.773 339.021 306.773 339.021L317.91 339.164Z" fill="#F7A491"/>
<path d="M304.779 348.962C304.779 348.962 309.248 350.271 311.529 350.599C313.819 350.926 316.826 348.175 318.442 348.921C320.222 349.739 320.15 357.103 320.15 357.103C320.15 357.103 296.75 357.921 289.479 357.031C286.697 356.694 295.646 352.01 304.768 348.972L304.779 348.962Z" fill="#2D353D"/>
<path d="M356.814 339.164C356.814 339.164 357.377 349.023 357.377 349.044C357.581 350.291 358.389 353.39 358.389 354.526C358.389 358.8 339.377 350.895 343.631 349.003C344.02 348.829 346.638 346.569 346.761 345.117C346.955 342.877 346.853 339.308 346.853 339.308L356.804 339.164H356.814Z" fill="#F7A491"/>
<path d="M343.683 348.962C343.683 348.962 348.152 350.271 350.433 350.599C352.724 350.926 355.731 348.175 357.346 348.921C359.126 349.739 359.198 357.103 359.198 357.103C359.198 357.103 335.327 358.044 328.383 357.031C325.612 356.622 334.55 352.01 343.673 348.972L343.683 348.962Z" fill="#2D353D"/>
<path d="M337.73 136.687L318.012 145.033C317.787 145.053 317.317 145.104 316.591 145.186C313.983 145.483 308.562 146.106 303.214 146.505H303.152C301.291 146.597 298.018 146.925 294.838 147.252C291.309 147.61 286.932 148.05 286.226 147.947C286.114 147.876 285.92 147.753 285.654 147.589C284.12 146.628 280.336 144.961 278.679 144.296C277.625 143.877 274.997 143.12 274.731 144.337C274.312 146.26 277.175 145.922 278.648 147.17C277.462 147.252 275.12 147.436 272.819 147.293L267.552 146.485C267.142 146.464 264.361 145.452 264.064 146.792V146.853C263.88 148.08 266.938 148.714 271.99 150.34C271.366 150.371 270.609 150.371 269.924 150.351C269.577 150.259 267.971 150.167 267.112 150.167C265.731 149.614 263.43 149.256 263.328 150.739C263.277 151.486 266.457 152.11 266.457 152.11C266.897 152.192 270.252 152.877 270.906 153.04C269.75 152.948 264.841 152.478 264.596 153.603C264.391 154.534 265.67 154.892 266.693 155.096C267.296 155.219 272.614 155.751 273.228 155.853C272.348 156.119 267.316 154.748 267.224 155.188C266.825 157.009 276.194 158.348 276.603 158.348C277.809 158.369 279.834 158.41 281.778 157.837C284.109 157.152 287.771 156.293 288.333 156.16C289.407 156.211 293.252 156.467 298.09 156.794C300.156 156.937 302.426 157.09 304.778 157.244V157.223C305.29 157.264 306.926 157.264 313.093 157.254C321.531 157.234 321.919 157.121 322.083 157.07C323.699 156.62 344.808 147.231 346.055 146.72L346.792 146.413L337.72 136.667L337.73 136.687Z" fill="url(#paint0_linear_686_1434)"/>
<path d="M297.047 124.19C292.71 124.19 287.321 125.949 283.005 128.782C282.227 129.293 281.195 128.73 281.195 127.8V97.9058C281.195 96.8933 280.376 96.0854 279.374 96.0854H249.848C248.918 96.0854 248.355 95.0524 248.866 94.2752C251.71 89.9593 253.458 84.5696 253.458 80.2333C253.458 71.5504 246.422 64.5039 237.729 64.5039C229.036 64.5039 222 71.5402 222 80.2333C222 84.5696 223.759 89.9593 226.592 94.2752C227.103 95.0524 226.541 96.0854 225.61 96.0854H196.084C195.072 96.0854 194.264 96.9036 194.264 97.9058V128.27C194.264 129.211 195.317 129.774 196.094 129.242C200.492 126.245 206.096 124.384 210.576 124.384C219.32 124.384 226.418 131.471 226.418 140.226C226.418 148.98 219.33 156.068 210.576 156.068C206.096 156.068 200.492 154.206 196.094 151.21C195.317 150.678 194.264 151.24 194.264 152.181V182.546C194.264 183.558 195.082 184.366 196.084 184.366H279.364C280.376 184.366 281.184 183.548 281.184 182.546V152.038C281.184 151.108 282.217 150.545 282.995 151.056C287.31 153.9 292.7 155.648 297.036 155.648C305.719 155.648 312.766 148.612 312.766 139.919C312.766 131.226 305.73 124.19 297.036 124.19H297.047Z" fill="url(#paint1_radial_686_1434)"/>
<path d="M135.805 117.521L125.394 121.786C124.453 122.175 123.584 122.717 122.827 123.412C120.536 125.498 115.494 130.05 115.494 130.05L119.299 134.314L125.527 128.751C126.243 128.117 127.163 127.769 128.125 127.769C129.526 127.769 131.101 127.462 132.676 126.818C136.746 125.151 139.272 121.878 138.301 119.505C137.912 118.544 137.012 117.879 135.805 117.542V117.521Z" fill="#B36660"/>
<path d="M97.0342 159.78C78.656 160.281 62.2516 153.184 46.195 144.715C40.6314 138.804 46.3791 125.857 53.8142 127.585C66.6595 132.197 80.4151 138.242 94.3138 146.127C96.0729 147.119 98.2819 146.628 99.4785 145.002C104.541 138.068 112.007 131.144 120.025 123.658L125.496 130.541C118.184 142.056 110.278 151.823 101.289 158.328C100.041 159.228 98.5581 159.739 97.024 159.78H97.0342Z" fill="url(#paint2_linear_686_1434)"/>
<path d="M207.273 124.19C202.936 124.19 197.547 125.949 193.231 128.782C192.453 129.293 191.421 128.731 191.421 127.8V98.274C191.421 97.2616 190.602 96.4536 189.6 96.4536H159.236C158.295 96.4536 157.732 97.507 158.264 98.2843C161.261 102.682 163.122 108.286 163.122 112.766C163.122 121.51 156.035 128.608 147.28 128.608C138.526 128.608 131.438 121.52 131.438 112.766C131.438 108.286 133.3 102.682 136.296 98.2843C136.828 97.507 136.265 96.4536 135.325 96.4536H104.96C103.948 96.4536 103.14 97.2718 103.14 98.274V181.554C103.14 182.566 103.958 183.374 104.96 183.374H189.59C190.602 183.374 191.41 182.556 191.41 181.554V152.028C191.41 151.097 192.443 150.535 193.22 151.046C197.536 153.889 202.926 155.638 207.262 155.638C215.945 155.638 222.992 148.602 222.992 139.909C222.992 131.216 215.955 124.179 207.262 124.179L207.273 124.19Z" fill="url(#paint3_radial_686_1434)"/>
<path d="M202.749 251.69C200.375 253.285 198.071 256.23 196.75 259.368C196.513 259.934 195.74 260.005 195.398 259.496L184.541 243.331C184.168 242.776 183.423 242.635 182.874 243.004L166.25 254.17C165.735 254.516 165.814 255.299 166.391 255.529C169.649 256.835 172.729 259.219 174.376 261.671C177.592 266.459 176.322 272.951 171.529 276.17C166.736 279.389 160.249 278.115 157.03 273.322C155.383 270.87 154.341 267.117 154.364 263.607C154.37 262.986 153.674 262.616 153.159 262.962L136.535 274.128C135.98 274.501 135.839 275.246 136.208 275.795L166.832 321.39C167.205 321.944 167.95 322.085 168.498 321.717L214.832 290.596C215.387 290.223 215.528 289.478 215.16 288.93L204.302 272.764C203.96 272.255 204.318 271.567 204.932 271.561C208.34 271.531 211.934 270.506 214.309 268.912C219.062 265.719 220.333 259.275 217.136 254.516C213.939 249.756 207.5 248.491 202.74 251.688L202.749 251.69Z" fill="#B7E6EB"/>
<path d="M46.5839 184.571C45.2135 193.284 43.2601 224.988 46.1032 233.334C51.36 248.746 55.5327 268.167 55.5327 271.992C55.5327 292.16 52.6691 326.943 56.4838 345.618L72.3257 346.385C76.6415 328.712 82.8903 276.503 82.7676 272.473C82.0722 250.495 81.9699 217.206 69.2882 183.568C67.2837 178.25 46.5737 184.571 46.5737 184.571H46.5839Z" fill="#1E3D7B"/>
<path d="M37.2867 178.762C37.2867 178.762 25.4641 185.696 22.9483 200.535C18.3563 227.678 28.8391 247.632 30.2709 262.246C30.6084 265.682 30.8232 269.139 29.555 272.351C22.1301 291.107 15.2983 320.03 15.2983 336.342L31.6618 341.66C39.5776 325.276 45.8366 300.117 54.4172 280.706C60.8399 266.163 70.2489 209.362 66.8228 179.999L37.2867 178.762Z" fill="url(#paint4_linear_686_1434)"/>
<path d="M73.7674 87.7605C58.9482 80.8265 46.1131 79.9878 43.3006 94.2343C42.7995 96.7604 43.3415 99.2763 43.9245 101.465C43.3518 102.273 43.3825 103.807 42.37 104.093C30.0769 107.591 27.3974 121.786 27.3974 121.786C26.9065 122.451 13.151 124.854 12.1487 125.437C7.50557 126.746 1.25678 132.29 0.0704251 139.275C-1.40229 147.947 2.35108 158.502 8.10898 156.794C22.9895 152.406 24.2577 165.865 34.6689 160.793C62.047 147.456 58.13 121.428 58.1607 120.927C59.838 94.6843 73.3174 101.894 72.4378 99.0819C74.606 98.8672 76.7332 96.9547 77.4184 94.7456C78.3287 91.8002 76.5389 89.0695 73.7469 87.7707L73.7674 87.7605Z" fill="#2D353D"/>
<path d="M64.0517 96.9032C60.9017 96.1055 57.8336 98.4885 57.8336 101.741V121.551C57.8336 124.476 55.5222 126.859 52.6279 126.971L52.7916 136.237H60.7688V121.275C65.371 121.193 70.2186 117.122 72.4482 111.007C74.0232 106.691 73.9516 102.324 72.5504 99.0612L64.0414 96.9032H64.0517Z" fill="#B36660"/>
<path d="M72.2532 183.753C54.0898 190.319 40.4161 189.235 31.1298 184.438C36.4786 160.476 27.4071 153.767 25.5662 138.436C24.9424 133.231 28.706 128.475 33.7377 127.002C41.6536 124.691 49.8353 126.368 58.7022 128.925C62.6397 130.06 65.9431 132.74 67.876 136.35L71.701 143.478C73.1941 146.26 73.9305 149.389 73.8282 152.55C71.2612 166.367 69.1851 163.084 72.2532 183.753Z" fill="#4FC963"/>
<path d="M104.162 161.294C103.078 161.437 100.327 161.508 100.327 161.508C100.327 161.508 102.71 160.966 104.97 159.371C106.279 158.451 108.325 157.888 108.642 158.624C109.276 160.077 106.044 161.038 104.152 161.283L104.162 161.294Z" fill="url(#paint5_linear_686_1434)"/>
<path d="M68.3062 105.413C68.7185 105.413 69.0527 105.078 69.0527 104.666C69.0527 104.254 68.7185 103.919 68.3062 103.919C67.8938 103.919 67.5596 104.254 67.5596 104.666C67.5596 105.078 67.8938 105.413 68.3062 105.413Z" fill="#2D353D"/>
<path d="M73.246 106.926L73.8597 108.818C73.9313 109.094 73.7881 109.381 73.5119 109.493L72.2949 109.411" fill="#B36660"/>
<path d="M73.246 106.926L73.8597 108.818C73.9313 109.094 73.7881 109.381 73.5119 109.493L72.2949 109.411" stroke="#2D353D" stroke-width="0.38" stroke-miterlimit="10" stroke-linecap="round"/>
<path d="M68.4697 112.796C68.9402 113.359 69.8913 113.635 70.9038 113.676" stroke="#2D353D" stroke-width="0.44" stroke-miterlimit="10" stroke-linecap="round"/>
<path d="M71.466 113.543C71.4251 113.748 71.3637 113.809 70.6888 113.758C70.0138 113.707 69.5024 113.502 69.5433 113.298C69.5842 113.093 70.1569 112.97 70.8319 113.022C71.5069 113.073 71.5069 113.339 71.466 113.543Z" fill="#2D353D"/>
<path d="M70.7602 114.627C70.7602 114.627 70.7295 114.627 70.6579 114.627C69.7068 114.658 69.1238 113.983 69.175 113.656C69.2568 113.154 69.9011 113.308 70.8522 113.277C71.1386 113.277 71.4454 113.625 71.4454 113.625C71.3125 114.085 71.0057 114.474 70.7602 114.627Z" fill="#2D353D"/>
<path opacity="0.8" d="M67.1609 111.334C67.7201 111.334 68.1734 110.881 68.1734 110.322C68.1734 109.762 67.7201 109.309 67.1609 109.309C66.6017 109.309 66.1484 109.762 66.1484 110.322C66.1484 110.881 66.6017 111.334 67.1609 111.334Z" fill="#DD2E1F"/>
<path d="M62.2721 133.691L54.3461 133.527C51.9938 133.711 48.087 131.021 48.7518 128.24C48.9257 127.534 49.2427 126.634 49.9177 126.705C52.2904 126.951 52.9143 126.91 53.6915 126.838L60.7789 128.137C61.0653 128.966 62.2926 130.397 63.1312 130.96C63.5403 131.226 64.7062 133.701 62.2721 133.691Z" fill="url(#paint6_linear_686_1434)"/>
<path d="M113.929 161.007C110.513 159.514 105.369 160.516 101.472 161.191C100.47 161.365 90.3965 164.894 90.3965 164.894L92.2987 170.283L100.174 167.502C101.074 167.184 102.066 167.215 102.955 167.573C104.254 168.105 105.829 168.412 107.527 168.412C111.935 168.412 115.504 166.336 115.504 163.769C115.504 162.736 115.085 161.508 113.939 161.007H113.929Z" fill="url(#paint7_linear_686_1434)"/>
<path d="M62.2307 179.11C46.2661 169.997 35.9366 155.403 26.6197 139.827C24.9322 131.88 36.5707 123.811 42.032 129.15C50.6126 139.766 59.2341 152.069 67.0068 166.029C67.9886 167.788 70.1363 168.524 72.0078 167.747C79.9339 164.454 89.9156 162.419 100.654 160.179L101.759 168.903C89.527 174.947 77.7044 179.181 66.6386 180.071C65.1045 180.194 63.5704 179.866 62.2409 179.099L62.2307 179.11Z" fill="url(#paint8_linear_686_1434)"/>
<path d="M73.065 97.9007C73.4027 96.0733 71.4612 94.1826 68.7285 93.6776C65.9958 93.1726 63.5067 94.2445 63.1691 96.0719C62.8314 97.8993 64.7729 99.79 67.5056 100.295C70.2383 100.8 72.7273 99.728 73.065 97.9007Z" fill="#2D353D"/>
<path d="M64.7371 98.2946C64.2871 96.3514 61.6996 95.2878 58.9587 95.9219C56.2178 96.556 52.4031 102.723 51.8406 104.513C50.9611 107.335 52.3622 110.925 54.4281 111.569C56.494 112.214 59.0814 110.577 59.2042 107.632C59.3064 105.208 58.8155 103.582 59.3985 103.122C59.7053 102.876 61.0144 102.835 61.4132 102.743C64.1541 102.109 65.1871 100.248 64.7371 98.3048V98.2946Z" fill="#2D353D"/>
<path d="M350.392 135.491C350.361 136.585 350.279 136.963 350.095 137.73C348.878 142.721 345.115 150.33 345.115 150.33L338.641 141.463C338.641 141.463 338.559 138.211 338.651 133.506C342.875 133.65 346.802 133.384 350.392 135.491Z" fill="#F8A492"/>
<path d="M324.834 132.617C324.834 132.617 350.228 137.608 350.923 137.229C351.373 136.984 356.436 118.933 352.918 103.96C351.292 97.0466 342.568 90.358 335.47 93.8148C331.891 95.5534 332.228 96.658 328.731 106.67C325.233 116.683 324.844 132.627 324.844 132.627L324.834 132.617Z" fill="url(#paint9_linear_686_1434)"/>
<path d="M329.385 78.74L334.898 92.383C334.898 92.383 328.567 101.158 323.556 100.831C319.363 100.565 320.723 94.4694 320.723 94.4694C320.723 94.4694 320.979 86.4206 319.383 82.6161C317.788 78.8116 329.385 78.7502 329.385 78.7502V78.74Z" fill="url(#paint10_linear_686_1434)"/>
<path d="M331.216 59.0938C331.523 58.9506 334.959 75.2424 331.053 80.0799C327.146 84.9173 319.005 87.0037 315.783 83.6492C312.224 79.9469 311.099 62.2539 317.338 57.1199C323.576 51.9859 331.206 59.0938 331.206 59.0938H331.216Z" fill="#F7A491"/>
<path d="M319.209 48.1302C324.373 48.7847 327.892 51.6381 329.201 52.8653C331.532 52.9676 334.764 54.0108 338.395 59.1039C342.864 65.3732 340.451 72.8492 336.063 76.756C331.686 80.6628 331.522 84.0377 331.522 84.0377L330.264 81.5014C330.264 81.5014 329.794 77.1139 330.735 74.6594C331.676 72.1947 328.045 70.8754 326.92 68.9629C326.051 67.4902 325.754 64.0027 324.373 61.5687C324.373 61.5687 319.464 58.2653 316.151 58.3982C310.516 58.6232 312.561 47.2915 319.188 48.1404L319.209 48.1302Z" fill="#600D0E"/>
<path d="M327.36 71.8673C327.473 73.8718 328.516 75.457 329.682 75.3854C330.848 75.3241 331.707 73.6366 331.595 71.632C331.482 69.6275 330.439 68.0423 329.273 68.1139C328.107 68.1753 327.248 69.8627 327.36 71.8673Z" fill="#F7A491"/>
<path d="M352.427 178.077C352.427 178.077 359.576 200.321 358.267 212.921C356.957 225.531 356.845 270.315 356.845 270.315L361.856 341.977L343.764 342.253C343.764 342.253 329.661 270.632 329.927 272.473C330.193 274.314 325.202 222.043 325.202 222.043L342.016 176.502L352.427 178.077Z" fill="#38424D"/>
<path d="M347.303 174.395C349.737 174.793 352.192 188.007 352.304 189.684C354.237 217.154 331.962 261.52 331.962 266.01C331.697 271.266 321.858 344.002 321.858 344.002L299.706 343.583C298.673 343.552 297.292 279.08 297.251 274.13C297.088 255.22 305.249 195.667 307.765 181.809C309.769 170.744 321.95 178.424 329.712 179.682C336.258 180.735 340.748 173.351 347.293 174.395H347.303Z" fill="url(#paint11_linear_686_1434)"/>
<path d="M305.791 153.163C305.086 142.496 304.881 122.574 306.916 116.079C307.806 113.236 310.516 95.3386 320.743 94.3773C327.862 93.7125 334.898 92.3728 334.898 92.3728C334.898 92.3728 341.3 91.9637 344.655 94.0193C348.009 96.075 351.016 103.398 350.075 118.503C347.314 162.858 355.26 177.698 355.26 177.698C355.26 177.698 320.518 190.963 305.3 182.75C306.804 152.877 306.149 158.502 305.802 153.163H305.791Z" fill="#C11F1D"/>
<path d="M309.053 158.911C308.409 159.995 307.499 160.905 306.353 161.693C303.531 163.636 300.463 165.211 297.476 166.878C293.958 168.903 290.389 170.846 286.861 172.85C285.551 173.597 284.232 174.333 282.954 175.121C282.115 175.632 281.133 176.307 280.172 176.583C280.039 176.573 279.814 176.542 279.507 176.501C277.717 176.266 273.575 176.328 271.796 176.42C270.661 176.481 267.961 176.88 268.227 178.107C268.646 180.03 271.111 178.526 272.962 179.038C272.819 178.997 272.225 179.447 272.082 179.519C271.653 179.754 271.223 179.979 270.794 180.194C269.842 180.674 268.881 181.124 267.899 181.513C265.721 182.382 263.41 182.791 261.149 183.395C260.771 183.497 260.382 183.609 260.086 183.855C259.656 184.203 259.482 184.785 259.493 185.338C259.513 186.923 260.434 188.651 261.528 189.756C262.581 190.809 264.136 191.362 265.588 191.546C268.186 191.883 271.07 191.464 273.586 190.799C276.02 190.165 278.372 189.101 280.274 187.434C282.105 185.829 285.071 183.528 285.531 183.17C285.991 182.812 286.84 182.658 287.382 182.443C288.374 182.065 289.356 181.666 290.358 181.308C292.629 180.5 294.889 179.641 297.139 178.751C304.114 175.98 310.823 172.728 317.562 169.435C319.547 168.463 321.582 167.461 323.075 165.845C324.936 163.84 325.284 161.529 325.55 158.931C326.378 150.709 327.381 142.537 328.424 134.335C328.444 134.141 328.782 130.766 328.874 130.766L312.633 131.471C312.122 137.066 311.6 142.66 311.048 148.254C310.782 150.964 310.588 153.664 310.045 156.323C309.851 157.285 309.524 158.134 309.074 158.89L309.053 158.911Z" fill="url(#paint12_linear_686_1434)"/>
<path d="M309.913 137.863C309.913 137.863 328.251 138.743 328.875 138.252C329.273 137.935 334.52 114.873 330.439 102.682C328.179 95.942 319.609 93.1705 315.119 96.7397C312.01 99.2147 311.294 101.168 309.494 111.61C307.694 122.052 309.924 137.853 309.924 137.853L309.913 137.863Z" fill="url(#paint13_linear_686_1434)"/>
<path d="M317.389 68.8606C317.801 68.8606 318.136 68.5263 318.136 68.114C318.136 67.7017 317.801 67.3674 317.389 67.3674C316.977 67.3674 316.643 67.7017 316.643 68.114C316.643 68.5263 316.977 68.8606 317.389 68.8606Z" fill="#2D353D"/>
<path d="M313.267 69.4946L311.979 71.806C311.805 72.1537 311.866 72.5832 312.101 72.798L313.39 73.0639" fill="#F7A491"/>
<path d="M313.267 69.4946L311.979 71.806C311.805 72.1537 311.866 72.5832 312.101 72.798L313.39 73.0639" stroke="#2D353D" stroke-width="0.46" stroke-miterlimit="10" stroke-linecap="round"/>
<path d="M317.982 77.3391C317.113 78.0652 315.476 78.7402 313.748 78.7402" stroke="#2D353D" stroke-width="0.46" stroke-miterlimit="10" stroke-linecap="round"/>
<path opacity="0.8" d="M319.495 75.3959C319.891 75.3959 320.211 75.0754 320.211 74.68C320.211 74.2846 319.891 73.9641 319.495 73.9641C319.1 73.9641 318.779 74.2846 318.779 74.68C318.779 75.0754 319.1 75.3959 319.495 75.3959Z" fill="#DD2E1F"/>
</g>
<defs>
<linearGradient id="paint0_linear_686_1434" x1="263.328" y1="147.528" x2="346.792" y2="147.528" gradientUnits="userSpaceOnUse">
<stop stop-color="#F7A491"/>
<stop offset="0.21" stop-color="#E19285"/>
<stop offset="0.44" stop-color="#D0847D"/>
<stop offset="0.61" stop-color="#CB807A"/>
</linearGradient>
<radialGradient id="paint1_radial_686_1434" cx="0" cy="0" r="1" gradientUnits="userSpaceOnUse" gradientTransform="translate(225.784 71.3254) scale(62.5289)">
<stop offset="0.25" stop-color="#008891"/>
<stop offset="0.6" stop-color="#007D87"/>
<stop offset="0.86" stop-color="#00727D"/>
</radialGradient>
<linearGradient id="paint2_linear_686_1434" x1="44.2248" y1="135.361" x2="124.134" y2="143.619" gradientUnits="userSpaceOnUse">
<stop offset="0.46" stop-color="#2FB648"/>
<stop offset="0.69" stop-color="#2EB346"/>
<stop offset="0.81" stop-color="#2BAC42"/>
<stop offset="0.89" stop-color="#279F3A"/>
<stop offset="0.97" stop-color="#208C2E"/>
<stop offset="0.99" stop-color="#1E852A"/>
</linearGradient>
<radialGradient id="paint3_radial_686_1434" cx="0" cy="0" r="1" gradientUnits="userSpaceOnUse" gradientTransform="translate(114.891 104.901) scale(63.2652)">
<stop offset="0.13" stop-color="#F3C746"/>
<stop offset="0.35" stop-color="#F1C033"/>
<stop offset="0.62" stop-color="#EFB920"/>
</radialGradient>
<linearGradient id="paint4_linear_686_1434" x1="14.5313" y1="278.927" x2="74.575" y2="221.45" gradientUnits="userSpaceOnUse">
<stop stop-color="#1E3D7B"/>
<stop offset="0.46" stop-color="#234790"/>
<stop offset="0.95" stop-color="#2851A4"/>
</linearGradient>
<linearGradient id="paint5_linear_686_1434" x1="100.327" y1="159.903" x2="108.734" y2="159.903" gradientUnits="userSpaceOnUse">
<stop offset="0.13" stop-color="#954C4A"/>
<stop offset="0.42" stop-color="#984E4C"/>
<stop offset="0.66" stop-color="#A25753"/>
<stop offset="0.88" stop-color="#B36660"/>
</linearGradient>
<linearGradient id="paint6_linear_686_1434" x1="55.9722" y1="135.03" x2="56.4119" y2="127.268" gradientUnits="userSpaceOnUse">
<stop offset="0.13" stop-color="#954C4A"/>
<stop offset="0.88" stop-color="#B36660"/>
</linearGradient>
<linearGradient id="paint7_linear_686_1434" x1="90.3965" y1="165.252" x2="115.494" y2="165.252" gradientUnits="userSpaceOnUse">
<stop offset="0.13" stop-color="#954C4A"/>
<stop offset="0.88" stop-color="#B36660"/>
</linearGradient>
<linearGradient id="paint8_linear_686_1434" x1="32.6946" y1="123.689" x2="96.0724" y2="185.471" gradientUnits="userSpaceOnUse">
<stop offset="0.01" stop-color="#4FC963"/>
<stop offset="0.05" stop-color="#4DC761"/>
<stop offset="0.63" stop-color="#37BA4E"/>
<stop offset="1" stop-color="#2FB648"/>
</linearGradient>
<linearGradient id="paint9_linear_686_1434" x1="329.651" y1="123.351" x2="365.16" y2="102.753" gradientUnits="userSpaceOnUse">
<stop offset="0.34" stop-color="#DD2E1F"/>
<stop offset="0.79" stop-color="#C5211D"/>
<stop offset="0.86" stop-color="#C11F1D"/>
</linearGradient>
<linearGradient id="paint10_linear_686_1434" x1="321.766" y1="86.5126" x2="334.151" y2="96.0853" gradientUnits="userSpaceOnUse">
<stop stop-color="#F7A491"/>
<stop offset="0.28" stop-color="#F2A08E"/>
<stop offset="0.56" stop-color="#E69688"/>
<stop offset="0.84" stop-color="#D2867D"/>
<stop offset="0.92" stop-color="#CB807A"/>
</linearGradient>
<linearGradient id="paint11_linear_686_1434" x1="304.554" y1="248.746" x2="353.112" y2="274.917" gradientUnits="userSpaceOnUse">
<stop stop-color="#4A5764"/>
<stop offset="0.78" stop-color="#38424D"/>
</linearGradient>
<linearGradient id="paint12_linear_686_1434" x1="279.722" y1="172.605" x2="335.215" y2="138.088" gradientUnits="userSpaceOnUse">
<stop offset="0.35" stop-color="#F7A491"/>
<stop offset="0.54" stop-color="#F3A18F"/>
<stop offset="0.7" stop-color="#EA998A"/>
<stop offset="0.83" stop-color="#D98C81"/>
<stop offset="0.92" stop-color="#CB807A"/>
</linearGradient>
<linearGradient id="paint13_linear_686_1434" x1="312.808" y1="128.321" x2="331.943" y2="105.31" gradientUnits="userSpaceOnUse">
<stop offset="0.18" stop-color="#DD2E1F"/>
<stop offset="0.48" stop-color="#D72B1E"/>
<stop offset="0.87" stop-color="#C8221D"/>
<stop offset="1" stop-color="#C11F1D"/>
</linearGradient>
</defs>
</svg>
